…
    bikerides_start_null <- bikerides %>% 
       filter(is.na(start_station_name)) 

    bikerides_end_null <- bikerides %>% 
       filter(is.na(end_station_name))

    bikerides_null <- bikerides %>% 
       filter(is.na(start_station_name), is.na(end_station_name))

    tibble(bikerides_start_null)

    ## # A tibble: 122,175 x 13
    ##    ride_id          rideable_type started_at          ended_at           
    ##    <chr>            <chr>         <dttm>              <dttm>             
    ##  1 60742256DFFFCA29 electric_bike 2020-07-31 08:30:34 2020-07-31 08:57:54
    ##  2 EBBD4FE9C8A95116 electric_bike 2020-07-29 19:02:25 2020-07-29 19:22:40
    ##  3 976336C6499A7189 electric_bike 2020-07-30 22:02:45 2020-07-30 22:17:54
    ##  4 EC549CDABDE45F98 electric_bike 2020-07-31 15:54:41 2020-07-31 16:00:35
    ##  5 70F53BFE303499AC electric_bike 2020-07-31 16:08:26 2020-07-31 16:15:29
    ##  6 11814668BAB6FCA3 electric_bike 2020-07-31 12:56:53 2020-07-31 13:13:27
    ##  7 D66AC7ACF66F8FF6 electric_bike 2020-07-30 08:32:14 2020-07-30 08:40:04
    ##  8 5196A992F09481DB electric_bike 2020-07-30 17:25:18 2020-07-30 17:25:35
    ##  9 2DB97E499E497D3D electric_bike 2020-07-30 17:28:20 2020-07-30 17:44:40
    ## 10 3C5018A592AB147C electric_bike 2020-07-31 18:40:31 2020-07-31 18:48:56
    ## # ... with 122,165 more rows, and 9 more variables: start_station_name <chr>,
    ## #   start_station_id <dbl>, end_station_name <chr>, end_station_id <dbl>,
    ## #   start_lat <dbl>, start_lng <dbl>, end_lat <dbl>, end_lng <dbl>,
    ## #   member_casual <chr>

    tibble(bikerides_end_null)

    ## # A tibble: 143,242 x 13
    ##    ride_id          rideable_type started_at          ended_at           
    ##    <chr>            <chr>         <dttm>              <dttm>             
    ##  1 5E2BD03BCA180FBA docked_bike   2020-04-07 11:53:08 2020-04-07 12:28:35
    ##  2 BD5813A6101E9BF4 docked_bike   2020-04-20 12:24:48 2020-04-20 12:29:46
    ##  3 228691849C2081EE docked_bike   2020-04-16 08:41:56 2020-04-16 11:33:48
    ##  4 ED7750BCEEE87174 docked_bike   2020-04-09 15:33:45 2020-04-09 16:34:54
    ##  5 1E00C457DCDA0835 docked_bike   2020-04-25 06:52:02 2020-04-25 07:17:54
    ##  6 0F7201752882C449 docked_bike   2020-04-30 20:47:40 2020-04-30 21:19:00
    ##  7 97C00C77F12AF5AE docked_bike   2020-04-10 11:54:44 2020-04-10 12:02:39
    ##  8 E0AFDC4D2358B027 docked_bike   2020-04-20 13:37:30 2020-04-20 14:27:48
    ##  9 8BAB90CEE039C959 docked_bike   2020-04-28 16:21:26 2020-04-28 17:03:01
    ## 10 8BC76B362DA665B7 docked_bike   2020-04-19 13:23:39 2020-04-19 13:58:52
    ## # ... with 143,232 more rows, and 9 more variables: start_station_name <chr>,
    ## #   start_station_id <dbl>, end_station_name <chr>, end_station_id <dbl>,
    ## #   start_lat <dbl>, start_lng <dbl>, end_lat <dbl>, end_lng <dbl>,
    ## #   member_casual <chr>

    tibble(bikerides_null)

    ## # A tibble: 71,232 x 13
    ##    ride_id          rideable_type started_at          ended_at           
    ##    <chr>            <chr>         <dttm>              <dttm>             
    ##  1 EC549CDABDE45F98 electric_bike 2020-07-31 15:54:41 2020-07-31 16:00:35
    ##  2 70F53BFE303499AC electric_bike 2020-07-31 16:08:26 2020-07-31 16:15:29
    ##  3 5196A992F09481DB electric_bike 2020-07-30 17:25:18 2020-07-30 17:25:35
    ##  4 836BE807C2FFC1DB electric_bike 2020-07-31 18:39:02 2020-07-31 18:39:13
    ##  5 D53BD878D7CF3DDA electric_bike 2020-07-30 17:17:45 2020-07-30 17:35:15
    ##  6 FA92AAEFE87BD7EA electric_bike 2020-07-15 10:20:31 2020-07-15 10:20:57
    ##  7 9D93190F92EC2DF7 electric_bike 2020-07-15 10:37:55 2020-07-15 10:41:08
    ##  8 0D1D3909251E0A97 electric_bike 2020-07-15 10:47:04 2020-07-15 10:50:04
    ##  9 782976003D0BB41E electric_bike 2020-07-15 13:53:58 2020-07-15 13:54:48
    ## 10 1A3B9ACE80464646 electric_bike 2020-07-15 11:25:35 2020-07-15 11:34:22
    ## # ... with 71,222 more rows, and 9 more variables: start_station_name <chr>,
    ## #   start_station_id <dbl>, end_station_name <chr>, end_station_id <dbl>,
    ## #   start_lat <dbl>, start_lng <dbl>, end_lat <dbl>, end_lng <dbl>,
    ## #   member_casual <chr>
…
